…
``` r
library(haven)
```

For instance, we can now load an *uncompressed* SAS file using

``` r
path <- system.file("examples", "iris.sas7bdat", package="haven")
read_sas(path)
```

    ## # A tibble: 150 x 5
    ##    Sepal_Length Sepal_Width Petal_Length Petal_Width Species
    ##           <dbl>       <dbl>        <dbl>       <dbl> <chr>  
    ##  1          5.1         3.5          1.4         0.2 setosa 
    ##  2          4.9         3            1.4         0.2 setosa 
    ##  3          4.7         3.2          1.3         0.2 setosa 
    ##  4          4.6         3.1          1.5         0.2 setosa 
    ##  5          5           3.6          1.4         0.2 setosa 
    ##  6          5.4         3.9          1.7         0.4 setosa 
    ##  7          4.6         3.4          1.4         0.3 setosa 
    ##  8          5           3.4          1.5         0.2 setosa 
    ##  9          4.4         2.9          1.4         0.2 setosa 
    ## 10          4.9         3.1          1.5         0.1 setosa 
    ## # ... with 140 more rows

or we could read a Stata file using

``` r
path <- system.file("examples", "iris.dta", package="haven")
read_stata(path)
```

    ## # A tibble: 150 x 5
    ##    sepallength sepalwidth petallength petalwidth species
    ##          <dbl>      <dbl>       <dbl>      <dbl> <chr>  
    ##  1        5.10       3.5         1.40      0.200 setosa 
    ##  2        4.90       3           1.40      0.200 setosa 
    ##  3        4.70       3.20        1.30      0.200 setosa 
    ##  4        4.60       3.10        1.5       0.200 setosa 
    ##  5        5          3.60        1.40      0.200 setosa 
    ##  6        5.40       3.90        1.70      0.400 setosa 
    ##  7        4.60       3.40        1.40      0.300 setosa 
    ##  8        5          3.40        1.5       0.200 setosa 
    ##  9        4.40       2.90        1.40      0.200 setosa 
    ## 10        4.90       3.10        1.5       0.100 setosa 
    ## # ... with 140 more rows
…
